Biofilm Bd Update
…
3: add column for treatment

4: transform as needed

5: ANOVA and Tukey (or glm if needed)

PIV Data wrangling

Code

# data wrangling for comparisons across experiments
partI_total_diff

# A tibble: 30 × 6
   site     filter       Day_1 Day_7 rate_loss    diff
   <fct>    <fct>        <dbl> <dbl>     <dbl>   <dbl>
 1 BARN     40um_filter  98177 1183.      4.42  96994.
 2 PRPND002 40um_filter  25770  610.      3.74  25160.
 3 GDPND009 40um_filter  73880  200       5.91  73680 
 4 GDPND008 40um_filter 176800  264.      6.51 176536.
 5 PRPND004 40um_filter 159200 2891.      4.01 156309.
 6 GDPND004 40um_filter  99540  431.      5.44  99109.
 7 CABIN    40um_filter  66130 3360       2.98  62770 
 8 NORTH    40um_filter 113000  745.      5.02 112255.
 9 WEST     40um_filter  84900 4470       2.94  80430 
10 PRPND009 40um_filter  95700 4118.      3.15  91582.
# ℹ 20 more rows
…
